{
  "project_info": {
    "project_number": "349380056556",
    "firebase_url": "https://store-c6d62.firebaseio.com",
    "project_id": "store-c6d62",
    "storage_bucket": "store-c6d62.appspot.com"
  },
  "client": [
    {
      "client_info": {
        "mobilesdk_app_id": "1:349380056556:android:0d5fa118ce07cf28f41cc9",
        "android_client_info": {
          "package_name": "br.com.rawgames.new_store"
        }
      },
      "oauth_client": [
        {
          "client_id": "349380056556-gn8v4j3bn9q53e1igr2o7hs20c1ksdh6.apps.googleusercontent.com",
          "client_type": 3
        }
      ],
      "api_key": [
        {
          "current_key": "AIzaSyA7XmPFhbWrbnH_fRZ19NhdFhPbsEKQNq4"
        }
      ],
      "services": {
        "appinvite_service": {
          "other_platform_oauth_client": [
            {
              "client_id": "349380056556-gn8v4j3bn9q53e1igr2o7hs20c1ksdh6.apps.googleusercontent.com",
              "client_type": 3
            }
          ]
        }
      }
    }
  ],
  "configuration_version": "1"
}