{
  "project_info": {
    "project_number": "938887845663",
    "firebase_url": "https://first-store.firebaseio.com",
    "project_id": "first-store",
    "storage_bucket": "first-store.appspot.com"
  },
  "client": [
    {
      "client_info": {
        "mobilesdk_app_id": "1:938887845663:android:846490e79ed9f9b06d822a",
        "android_client_info": {
          "package_name": "br.com.rawgames.store"
        }
      },
      "oauth_client": [
        {
          "client_id": "938887845663-irqkt2v0c0gn5fbgpd87ctthhhmdmvvp.apps.googleusercontent.com",
          "client_type": 3
        }
      ],
      "api_key": [
        {
          "current_key": "AIzaSyDrhiV07oLctJjSIAEyd8MXW-8Q8E9IhUo"
        }
      ],
      "services": {
        "appinvite_service": {
          "other_platform_oauth_client": [
            {
              "client_id": "938887845663-irqkt2v0c0gn5fbgpd87ctthhhmdmvvp.apps.googleusercontent.com",
              "client_type": 3
            }
          ]
        }
      }
    }
  ],
  "configuration_version": "1"
}